Testbench for Univariate Time Series Cleaning • cleanTS
…
# Install development version from GitHub
devtools::install_github("Mayur1009/cleanTS")

Example

library(cleanTS)
#> Registered S3 method overwritten by 'quantmod':
#>   method            from
#>   as.zoo.data.frame zoo

# Read sunspot.month dataset
data <- timetk::tk_tbl(sunspot.month)
print(data)
#> # A tibble: 3,177 × 2
#>    index     value
#>    <yearmon> <dbl>
#>  1 Jan 1749   58  
#>  2 Feb 1749   62.6
#>  3 Mar 1749   70  
#>  4 Apr 1749   55.7
#>  5 May 1749   85  
#>  6 Jun 1749   83.5
#>  7 Jul 1749   94.8
#>  8 Aug 1749   66.3
#>  9 Sep 1749   75.9
#> 10 Oct 1749   75.5
#> # … with 3,167 more rows
…
