Clean univariate time-series data — cleanTS • cleanTS
…
    Examples

# Convert sunspots.month to dataframe
data <- timetk::tk_tbl(sunspot.month)
print(data)
#> # A tibble: 3,177 × 2
#>    index     value
#>    <yearmon> <dbl>
#>  1 Jan 1749   58  
#>  2 Feb 1749   62.6
#>  3 Mar 1749   70  
#>  4 Apr 1749   55.7
#>  5 May 1749   85  
#>  6 Jun 1749   83.5
#>  7 Jul 1749   94.8
#>  8 Aug 1749   66.3
#>  9 Sep 1749   75.9
#> 10 Oct 1749   75.5
#> # ℹ 3,167 more rows

# Randomly insert missing values to simulate missing value imputation
set.seed(10)
ind <- sample(nrow(data), 100)
data$value[ind] <- NA

# Perform cleaning
cts <- cleanTS(data, date_format = "my", time = "index", value = "value")
print(cts)
#> $clean_data
#> # A tibble: 3,177 × 5
#>    time                value missing_type method_used is_outlier
#>    <dttm>              <dbl> <chr>        <chr>       <lgl>     
#>  1 1749-01-01 00:00:00  58   NA           NA          FALSE     
#>  2 1749-02-01 00:00:00  62.6 NA           NA          FALSE     
#>  3 1749-03-01 00:00:00  70   NA           NA          FALSE     
#>  4 1749-04-01 00:00:00  55.7 NA           NA          FALSE     
#>  5 1749-05-01 00:00:00  85   NA           NA          FALSE     
#>  6 1749-06-01 00:00:00  83.5 NA           NA          FALSE     
#>  7 1749-07-01 00:00:00  94.8 NA           NA          FALSE     
#>  8 1749-08-01 00:00:00  66.3 NA           NA          FALSE     
#>  9 1749-09-01 00:00:00  75.9 NA           NA          FALSE     
#> 10 1749-10-01 00:00:00  75.5 NA           NA          FALSE     
#> # ℹ 3,167 more rows
…
#> 
#> $mcar_err
#> # A tibble: 1 × 4
#>   na_interpolation na_locf na_ma na_kalman
#>              <dbl>   <dbl> <dbl>     <dbl>
#> 1             2.30    2.92  2.25      2.25
#> 
#> $mar_err
#> # A tibble: 1 × 4
#>   na_interpolation na_locf na_ma na_kalman
#>              <dbl>   <dbl> <dbl>     <dbl>
#> 1            0.299   0.407 0.263     0.268
#> 
#> $outliers
#> # A tibble: 54 × 4
#>    time                value orig_value method_used
#>    <dttm>              <dbl>      <dbl> <chr>      
#>  1 1778-01-01 00:00:00  132.       177. na_kalman  
#>  2 1778-05-01 00:00:00  142.       239. na_kalman  
#>  3 1778-06-01 00:00:00  144.       172. na_kalman  
#>  4 1778-09-01 00:00:00  145.       172. na_kalman  
#>  5 1787-12-01 00:00:00  140.       174  na_kalman  
#>  6 1836-12-01 00:00:00  130.       206. na_kalman  
#>  7 1837-01-01 00:00:00  134.       188  na_kalman  
#>  8 1837-02-01 00:00:00  138.       176. na_kalman  
#>  9 1847-10-01 00:00:00  133.       180. na_kalman  
#> 10 1870-05-01 00:00:00  142.       176  na_kalman  
#> # ℹ 44 more rows
…
